{
  "Version": "2012-10-17",
  "Statement": [
    {
      "Effect": "Allow",
      "Principal": {
        "Service": ["lambda.amazonaws.com", "s3.amazonaws.com"]
      },
      "Action": "sts:AssumeRole"
    }
  ]
}
